Day 5
…
75,47,61,53,29
97,61,53,29,13
75,29,13
75,97,47,61,53
61,13,29
97,13,75,29,47"

input <- adventofcode_input(what = "data.frame", input = test)
rules <- 
  input |> 
  filter(row_number() < which(x == "")) |> 
  separate_wider_delim(x, "|", names_sep = "") |>
  print()

# A tibble: 21 × 2
   x1    x2   
   <chr> <chr>
 1 47    53   
 2 97    13   
 3 97    61   
 4 97    47   
 5 75    29   
 6 61    13   
 7 75    53   
 8 29    13   
 9 97    29   
10 53    29   
# ℹ 11 more rows
…
