Day 5
…
data <- 
    read_csv(
        here::here("2022/05_input"),
        col_names = c("lines"),
        show_col_types = FALSE,
        skip_empty_rows = FALSE
    )

data %>% print(n = 11)

# A tibble: 511 × 1
   lines                              
   <chr>                              
 1 [N]             [R]             [C]
 2 [T] [J]         [S] [J]         [N]
 3 [B] [Z]     [H] [M] [Z]         [D]
 4 [S] [P]     [G] [L] [H] [Z]     [T]
 5 [Q] [D]     [F] [D] [V] [L] [S] [M]
 6 [H] [F] [V] [J] [C] [W] [P] [W] [L]
 7 [G] [S] [H] [Z] [Z] [T] [F] [V] [H]
 8 [R] [H] [Z] [M] [T] [M] [T] [Q] [W]
 9 1   2   3   4   5   6   7   8   9  
10 <NA>                               
11 move 3 from 9 to 7                 
# … with 500 more rows
…
moves <- data %>% 
    filter(str_detect(lines, "move")) %>% 
    rowwise() %>% 
    transmute(
        qty = extract_next_number(lines, ""),
        from = extract_next_number(lines, "from"),
        to = extract_next_number(lines, "to"),
    ) 

moves

# A tibble: 501 × 3
# Rowwise: 
     qty  from    to
   <dbl> <dbl> <dbl>
 1     3     9     7
 2     4     4     5
 3     2     4     6
 4     4     7     5
 5     3     7     3
 6     2     5     9
 7     5     6     3
 8     5     9     1
 9     3     8     4
10     3     4     6
# … with 491 more rows
…
