Day 7
…
data <- 
    read_csv(
        here::here("2022/07_input"),
        col_names = c("line"),
        show_col_types = FALSE
    )

data %>% print(n = 30)

# A tibble: 1,087 × 1
   line               
   <chr>              
 1 $ cd /             
 2 $ ls               
 3 dir bfbjzfd        
 4 dir mbc            
 5 dir psqmv          
 6 dir qqpgw          
 7 59022 rrqzqwl.frp  
 8 dir sscj           
 9 dir vpfdwq         
10 dir zzp            
11 $ cd bfbjzfd       
12 $ ls               
13 125000 bmzjjgzc.dcr
14 dir brmgzjp        
15 165351 hgm         
16 dir rhrqttg        
17 dir zfdc           
18 $ cd brmgzjp       
19 $ ls               
20 298676 zzp.wrm     
21 $ cd ..            
22 $ cd rhrqttg       
23 $ ls               
24 dir hmz            
25 dir hpcrbfq        
26 $ cd hmz           
27 $ ls               
28 297949 lqcg        
29 $ cd ..            
30 $ cd hpcrbfq       
# … with 1,057 more rows
…
[1] "c"                  "c/users"            "c/users/jordi"     
[4] "c/users/jordi/docs"

paths <- data %>% 
    mutate(path = line %>% 
          str_extract("cd (.*)") %>% 
          str_remove("cd ")
    ) %>% 
    mutate(path = accumulate(path, cd)) %>% 
    unnest(path)

paths %>% 
    print(n = 40)

# A tibble: 6,246 × 2
   line                path             
   <chr>               <chr>            
 1 $ cd /              /                
 2 $ ls                /                
 3 dir bfbjzfd         /                
 4 dir mbc             /                
 5 dir psqmv           /                
 6 dir qqpgw           /                
 7 59022 rrqzqwl.frp   /                
 8 dir sscj            /                
 9 dir vpfdwq          /                
10 dir zzp             /                
11 $ cd bfbjzfd        /                
12 $ cd bfbjzfd        //bfbjzfd        
13 $ ls                /                
14 $ ls                //bfbjzfd        
15 125000 bmzjjgzc.dcr /                
16 125000 bmzjjgzc.dcr //bfbjzfd        
17 dir brmgzjp         /                
18 dir brmgzjp         //bfbjzfd        
19 165351 hgm          /                
20 165351 hgm          //bfbjzfd        
21 dir rhrqttg         /                
22 dir rhrqttg         //bfbjzfd        
23 dir zfdc            /                
24 dir zfdc            //bfbjzfd        
25 $ cd brmgzjp        /                
26 $ cd brmgzjp        //bfbjzfd        
27 $ cd brmgzjp        //bfbjzfd/brmgzjp
28 $ ls                /                
29 $ ls                //bfbjzfd        
30 $ ls                //bfbjzfd/brmgzjp
31 298676 zzp.wrm      /                
32 298676 zzp.wrm      //bfbjzfd        
33 298676 zzp.wrm      //bfbjzfd/brmgzjp
34 $ cd ..             /                
35 $ cd ..             //bfbjzfd        
36 $ cd rhrqttg        /                
37 $ cd rhrqttg        //bfbjzfd        
38 $ cd rhrqttg        //bfbjzfd/rhrqttg
39 $ ls                /                
40 $ ls                //bfbjzfd        
# … with 6,206 more rows
I group and summarize the sizes and thenfilter to get the sum of sizes:

sizes <- paths %>% 
    filter(str_detect(line, "^[0-9]")) %>% 
    group_by(path) %>% 
    summarize(size = line %>%
        str_extract("^[0-9]+") %>%
        as.numeric() %>%
        sum()
    ) %>% 
    arrange(-size)

sizes

# A tibble: 199 × 2
   path                              size
   <chr>                            <dbl>
 1 /                             47052440
 2 //psqmv                       23595140
 3 //psqmv/tbcz                  21231784
 4 //vpfdwq                      17348139
 5 //psqmv/tbcz/lwmjgnh          15124476
 6 //vpfdwq/zzp                  11958790
 7 //vpfdwq/zzp/zbdpt            10519770
 8 //psqmv/tbcz/lwmjgnh/pnhcpprn  7278116
 9 //vpfdwq/zzp/zbdpt/jjmfpmnn    7268994
10 //psqmv/tbcz/lwmjgnh/zbprw     5616207
# … with 189 more rows
…
