Day 8
…
data <- here::here("2022/08_input") %>% 
    read_csv(
      col_names = c("line"),
      show_col_types = FALSE
    ) %>% 
    make_grid()

data

# A tibble: 9,801 × 3
   value   col   row
   <int> <int> <int>
 1     0     1     1
 2     0     2     1
 3     1     3     1
 4     0     4     1
 5     1     5     1
 6     2     6     1
 7     0     7     1
 8     0     8     1
 9     2     9     1
10     3    10     1
# … with 9,791 more rows
…
[1] "distances: 3 3"
[1] "distances: 3 4"
[1] "distances: 3 5"
[1] "distances: 4 1"
[1] "distances: 4 2"
[1] "distances: 4 3"
[1] "distances: 4 4"
[1] "distances: 4 5"
[1] "distances: 5 1"
[1] "distances: 5 2"
[1] "distances: 5 3"
[1] "distances: 5 4"
[1] "distances: 5 5"

# A tibble: 26 × 9
# Rowwise: 
   value   col   row up        down      right     left      distances scenic_…¹
   <int> <int> <int> <list>    <list>    <list>    <list>    <list>        <dbl>
 1     5     3     4 <int [3]> <int [1]> <int [2]> <int [2]> <int [4]>         8
 2     5     3     2 <int [1]> <int [3]> <int [3]> <int [2]> <int [4]>         6
 3     5     2     3 <int [2]> <int [2]> <int [3]> <int [1]> <int [4]>         6
 4     4     4     4 <int [3]> <int [1]> <int [1]> <int [3]> <int [4]>         3
 5     2     5     2 <int [1]> <int [3]> <int [1]> <int [4]> <int [4]>         2
 6     3     4     3 <int [2]> <int [2]> <int [1]> <int [3]> <int [4]>         2
 7     5     2     2 <int [1]> <int [3]> <int [4]> <int [1]> <int [4]>         1
 8     1     4     2 <int [1]> <int [3]> <int [2]> <int [3]> <int [4]>         1
 9     3     3     3 <int [2]> <int [2]> <int [2]> <int [2]> <int [4]>         1
10     3     2     4 <int [3]> <int [1]> <int [3]> <int [1]> <int [4]>         1
# … with 16 more rows, and abbreviated variable name ¹​scenic_score
…
