Day 9
…
data <- here::here("2022/09_input") %>% 
    read_csv(
      col_names = c("line"),
      show_col_types = FALSE
    ) 
data

# A tibble: 2,000 × 1
   line 
   <chr>
 1 D 2  
 2 U 2  
 3 L 2  
 4 D 2  
 5 L 2  
 6 D 2  
 7 L 1  
 8 D 2  
 9 U 1  
10 L 1  
# … with 1,990 more rows
…
