Day 11
…
Warning: One or more parsing issues, call `problems()` on your data frame for details,
e.g.:
  dat <- vroom(...)
  problems(dat)

data

# A tibble: 55 × 2
   key                value                    
   <chr>              <chr>                    
 1 "Monkey 0"          <NA>                    
 2 "  Starting items" " 98, 89, 52"            
 3 "  Operation"      " new = old * 2"         
 4 "  Test"           " divisible by 5"        
 5 "    If true"      " throw to monkey 6"     
 6 "    If false"     " throw to monkey 1"     
 7  <NA>               <NA>                    
 8 "Monkey 1"          <NA>                    
 9 "  Starting items" " 57, 95, 80, 92, 57, 78"
10 "  Operation"      " new = old * 13"        
# … with 45 more rows
…
